SARAH GRABINSKI - Gone Too Young: The Impact of Food, Sleep, and Income on Premature Mortality
…
    High 
    116 
    33.0% 

Our Analytic Tibble

Printing My Tibble

Below is my final tibble containing 352 counties and 11 variables.

chr_2022

# A tibble: 352 × 11
   fipscode state county years…¹ food_…² insuf…³ hs_co…⁴ media…⁵ hs_co…⁶ media…⁷
   <chr>    <fct> <chr>    <dbl>   <dbl>   <dbl>   <dbl>   <dbl> <fct>   <fct>  
 1 12001    FL    Alach…    360.    13.4    36.0    92.8    52.0 Above … Average
 2 12003    FL    Baker…    490.    12.2    43.2    84.9    61.5 Below … High   
 3 12005    FL    Bay C…    479.    15      39.8    90.9    61.3 Above … High   
 4 12007    FL    Bradf…    503.    16.4    41.4    78.9    48.3 Below … Low    
 5 12009    FL    Breva…    418.    12      40.7    92.2    65.9 Above … High   
 6 12011    FL    Browa…    306.     9.9    41.3    89.4    63.9 Above … High   
 7 12013    FL    Calho…    508.    14.7    41.0    77.9    44.0 Below … Low    
 8 12015    FL    Charl…    352.    13.5    39.8    90.8    58.4 Above … Average
 9 12017    FL    Citru…    543.    15.5    42.9    89.5    48.6 Above … Low    
10 12019    FL    Clay …    376.    10.8    41.0    92.1    72.5 Above … High   
# … with 342 more rows, 1 more variable: county_ranked <dbl>, and abbreviated
#   variable names ¹​years_lost, ²​food_insecurity, ³​insufficient_sleep,
#   ⁴​hs_completion_raw, ⁵​median_income_raw, ⁶​hs_completion_cat,
#   ⁷​median_income_cat
…
